{
  "subnet_id": "sss-ddd-fff",
  "region_name": "rr-ee-gg",
  "subnet_name": "default",
  "cidr_block": "172.31.0.0/16",
  "gateway": "172.0.0.1",
  "is_default": true,
  "created_at": "2017-05-02",
  "updated_at": "2017-05-02"
}
