{
  "required": true,
  "$schema": "http://json-schema.org/draft-03/schema",
  "type": "object",
  "properties": {
    "node_type": {
      "required": false,
      "type": "string"
    },
    "failure_info": {
      "required": false,
      "type": "json"
    }
  }
}
