{
  "num_pages": 1,
  "page_size": 20,
  "next": null,
  "previous": null,
  "count": "2",
  "results": [
    {
      "registry_code": "",
      "license_code": "",
      "product_name": "alauda_ee",
      "enterprise_name": "XXXX",
      "kind": "release | beta",
      "expire_at": "2016-02-06 12:41:52"
    }
  ]
}
