{
  "name": "test_app",
  "values_yaml_content":"<the Values.yaml content>",
  "template": {
      "uuid": "66435da1-4915-4d32-87c2-5e1c984a6689",
      "name": "mysql",
      "version": {
        "uuid": "77435da1-4915-4d32-87c2-5e1c984a6689"
      }
  },
  "namespace": {
      "uuid": "4928e1ee-ed87-4bd1-99f4-1227e1192dbc",
      "name": "default"
  },
  "cluster": {
      "uuid": "edc70f4a-ee71-40b1-9cc7-cd5569bead2d",
      "name": "cluster-1"
  }
}
