{
  "10.7.0.4": [
    {
      "key": "node-role.kubernetes.io/master",
      "value": ""
    },
    {
      "key": "kubernetes.io/hostname",
      "value": "10.7.0.4"
    },
    {
      "key": "beta.kubernetes.io/os",
      "value": "linux"
    },
    {
      "key": "beta.kubernetes.io/arch",
      "value": "amd64"
    }
  ],
  "10.7.0.5": [
    {
      "key": "ip",
      "value": "10.7.0.6",
    },
    {
      "key": "kubernetes.io/hostname",
      "value": "10.7.0.6"
    },
    {
      "key": "beta.kubernetes.io/os",
      "value": "linux"
    },
    {
      "key": "beta.kubernetes.io/arch",
      "value": "amd64"
    }
  ]
}
