[
    {
        "language": "golang",
        "runtimes": [
            {
                "name": "go1.7",
                "is_default": true
            },
            {
                "name": "go1.6",
                "is_default": false
            }
        ]
    },
    {
        "language": "java",
        "runtimes": [
            {
                "name": "openjdk7",
                "is_default": true
            },
            {
                "name": "oraclejdk8",
                "is_default": false
            }
        ]
    }
]
