{
    "kind": "Namespace",
    "apiVersion": "v1",
    "metadata": {
      "name": "aaa",
      "selfLink": "/api/v1/namespaces/aaa",
      "uid": "62a0a79e-e39f-11e7-9021-0017fa00f456",
      "resourceVersion": "8005603",
      "creationTimestamp": "2017-12-18T02:58:55Z"
    },
    "spec": {
      "finalizers": [
        "kubernetes"
      ]
    },
    "status": {
      "phase": "Active"
    }
  }