{
    "workloads": {
        "_comments": "key is <resource-kind>-<resource-name>",
        "Deployment-hello-world": {
           "service1": [
               {
                    "name": "alb2",
                    "protocol": "tcp",
                    "host": "1.2.3.4",
                    "_frontend_comments": "frontend is the port of alb",
                    "frontend": 8765,

                    "_port_comments": "port is port of service",
                    "port": 6543
                },
                {
                    "_comments": "<protocol>://<host>:<frontend><path>",
                    "name": "alb2",
                    "protocol": "http",
                    "host": "service1.ns.myalauda.cn",
                    "frontend": 80,
                    "port": 80,
                    "path": "/abc"
                }
            ],
            "service2": [
                {
                    "name": "alb3",
                    "protocol": "http",
                    "host": "service2.ns.myalauda.cn",
                    "frontend": 80,
                    "port": 80,
                    "path": ""
                }
            ]
        },
        "Deployment-hello": {
            "service2": [
                {
                    "name": "alb3",
                    "protocol": "http",
                    "host": "service2.ns.myalauda.cn",
                    "frontend": 80,
                    "port": 80,
                    "path": ""
                }
            ]
        }
    }
}