{
	"type": "alarm", 
	"payload": {
		"username": "", 
		"reason": "1 datapoint (100.0) was greater than or equal to the threshold", 
		"subject": "this is a alarm", 
		"time": "2011-06-28 00:00:00 UTC", 
		"footer": ""
	}
}
