{
  "cluster": {
    "name": "aiops"
  },
  "metric": {
    "queries": [
      {
        "labels": [
          {
            "name": "name",
            "value": "nginx"
          },
          {
            "name": "kind",
            "value": "Deployment"
          },
          {
            "name": "namespace",
            "value": "default"
          },
          {
            "name": "application",
            "value": "my-web"
          }
        ]
      }
    ]
  }
}