{
  "container_manager": "NONE",
  "features": {
    "service": {
      "features": []
    }
  },
  "attr": {
    "docker": {
      "version": "1.12.3",
      "path": "/var/lib/docker"
    },
    "cloud": {
      "name": "private"
    }
  },
  "name": "test123",
  "display_name": "test123",
  "namespace": "testorg001"
}
