{
    "labels": [
        {
            "key": "ip",
            "value": "192.168.1.1",
            "editable": false
        },
        {
            "key": "os",
            "value": "ubuntu",
            "editable": true
        }
    ]
}