{
    // Basic Information
    "uuid": "210471a4-efe2-46af-aa89-adf96bda8095",
    "unique_name": "210471a4-efe2-46af-aa89-adf96bda8095",
    "namespace": "admin",
    "region_id": "11493b30-8012-4ef1-b38b-f7cba713776e",
    "region": {
        "display_text": "azure-mesos",
        "name": "azure_mesos"
    },
    "created_at": "2017-07-25T03:28:19.267916",
    "updated_at": "2017-07-31T08:46:11.015785",
    "container_manager": "MESOS",
    "target_state": "STARTED",
    "service_name": "dddddd-int-azure",
    "service_namespace": "default--int-azure",
    "project_name": "",
    "project_uuid": "",
    "space_name": "int-azure",
    "space_id": "5bf09b2a-f86b-4610-addd-548258fb988e",
    "space_uuid": "5bf09b2a-f86b-4610-addd-548258fb988e",
    "subnet_id": null,
    "entrypoint": "",
    "run_command": "",
    "custom_domain_name": null,
    "healthy_num_instances": 1,
    "image_name": "index.alauda.cn/alauda/hello-world",
    "network_mode": "BRIDGE",
    "last_autoscale_datetime": "None",
    "current_status": "Running",
    "exec_endpoint": "42.159.145.127",
    "health_status": "healthy",
    "is_stateful": false,
    "image_tag": "latest",
    "target_num_instances": 1,
    "current_num_instances": 1,
    "instance_size": "XXS",
    "custom_instance_size": {
        "mem": 256,
        "cpu": 0.125
    },

    // Permissions
    "resource_actions": [
        "service:create",
        "service:delete",
        "service:start",
        "service:stop",
        "service:update",
        "service:view"
    ],

    // Instances for MESOS
    "instances": [
        {
            "uuid": "854b6bfd-75cc-11e7-9b7e-da0e66982c70",
            "host_ip": "172.18.0.7",
            "instance_name": "dddddd-int-azure.0",
            "version": "CURRENT",
            "default_domain_name": "172.18.0.7",
            "instance_ports": [
                {
                    "protocol": "tcp",
                    "service_port": 31846,
                    "ddomain": "172.18.0.7",
                    "cdomain": "",
                    "host_port": 31846,
                    "container_port": 80
                }
            ],
            "started_at": "2017-07-31T08:44:56.094000"
        }
    ],

    // Scaling Mode
    "scaling_mode": "AUTO",
    "autoscaling_config": {
        "decrease_delta": 1,
        "wait_period": 30,
        "maximum_num_instances": 20,
        "increase_delta": 1,
        "minimum_num_instances": 1
    },

    // Volumes
    "volumes": [
        {
        "app_volume_dir": "/tmp",
        "driver_name": "",
        "region_id": "211253a0-2e29-4a9b-9079-5c7149a044a2",
        "volume_id": "host_path",
        "volume_name": "/alauda_data/mydata"
        }
    ],

    // Config Files
    "mount_points": [
        {
            "path": "/data/nav/apps/nav/cas/app.conf",
            "type": "config",
            "value": {
                "name": "dddd",
                "key": "x",
                "uuid": "daaec4bb-8b18-467d-b41d-2cfc536c5636"
            },
            "volume_name": "7b085253-848d-4faa-93ad-5e1f8092a139"
        }
    ],

    // Environment Variables
    "instance_envvars": {
        "key": "value"
    },
    "envfiles": [
        {
            "content": [
                [
                    "key2",
                    "value2"
                ]
            ],
            "name": "test",
            "uuid": "0f616fa3-d2f0-4de6-9148-b77113dbd376"
        }
    ],

    // Network Configuration
    "ports": [
        80
    ],
    "raw_container_ports": [
        {
            "host_port": 31846,
            "protocol": "tcp",
            "container_port": 80
        }
    ],
    "load_balancers": [],

    // Health Check
    "health_checks": [
        {
            "protocol": "HTTP",
            "ignore_http1xx": false,
            "timeout_seconds": 20,
            "interval_seconds": 60,
            "max_consecutive_failures": 0,
            "path": "/",
            "port": 80,
            "grace_period_seconds": 100
        }
    ],


    // Links
    "linked_from_apps": {},
    "linked_to_apps": {
        "b063ebcd-c6f7-4655-a1c6-9841f1bba9da": "link2"
    },
    "linked_to_services": [
        {
            "dest": "liudong-1",
            "src": "210471a4-efe2-46af-aa89-adf96bda8095",
            "dest_alias": "link2",
            "dest_uuid": "b063ebcd-c6f7-4655-a1c6-9841f1bba9da",
            "dest_name": "liudong-1"
        }
    ],

    // Labels
    "node_tag": "ip:172.31.8.138",
    "mipn_enabled": false,
    "labels": [
        {
            "key": "key",
            "value": "value", 
            "editable": true,
            "propogate": true
        },
        {
            "key": "space",
            "value": "dev", 
            "editable": false,
            "propogate": false
        }
    ],
    //[kubernetes] pod controller type. 
    "pod_controller": "Deployment/DaemonSet/StatefulSet"
}
