{
    // OpenLDAP, ActiveDirectory, AzureAD
    "type": "OpenLDAP",
    "config": {
        "host": "127.0.0.1",
        "port": "1039",
        "tls": true,
        "service_account": "uid=admin,ou=system",
        "service_password": "secret",
        "search_base": "dc=alauda,dc=cn"
    },
   "schema": {
        "users": {
            "class_type": "person",
            "login_field": "uid",
            "search": "(uid=tquist)"
        }
    },
    "test": {
        "username": "",
        "password": ""
    }
}