{
  "code": 0,
  "message": "SUCCESS",
  "data": {
    "display_name": "哈喽", 
    "uuid": "888fb901-dd1f-4c3e-80af-0eed5336ac29", 
    "created_at": 1484049144415, 
    "namespace": "alauda", 
    "updated_at": 1484049144415, 
    "dashboard_name": "my-dashabord", 
    "orders": ""
  }
}