{
  "template_type": "alarm",
  "data": {
    "subject": "this is a alarm",
    "content": "1 datapoint (100.0) was greater than or equal to the threshold",
    "time": "2011-06-28T00:00:00.0Z"
  }
}
