{
  "refresh": true,
  "source":{
    "uuid": "",
    "created_at": "2017-10-15T12:11:52.572029Z",
    "updated_at": "2017-10-15T12:11:52.572029Z",
    "created_by": "jtcheng",
    "namespace": "alaudaorg",
    "is_public": false,
    "url": "http://github.com/chengjingtao/pipeline-templates",
    "type": "GIT", /*GIT SVN*/
    "branch": "master",
    "username": "chengjingtao",
    "password": "123"
  }
}