{
    "display_name": "开发工程师",
    "description": "",
    "scope": {
        "project": true,
        "space": true
    },
    "permissions": [
        {
            "uuid": "321-321-321",
            "template_uuid": "123-123-123",
            "resource_type": "service",
            "resource": ["*"],
            "actions": ["service:*"],
            "constraints": [
                {
                    "res:cluster": "dev"
                }
            ]
        }
    ]
}