{
  "count": 2,
  "next": null,
  "previous": null,
  "page_size": 20,
  "num_pages": 1,
  "results": [
    {
      "type": "SnapShots",
      "resource": {
        "name": "snap-1",
        "backup_url": "",
        "created_at": "2016-10-28T08:13:02.860741927Z",
        "updated_at": "2016-10-28T08:13:02.860741927Z",
        "state": "pending",
        "synced_at": "0001-01-01T00:00:00Z",
        "success": true,
        "size": 10,
        "uuid": "4c9b0e2b-64e7-4e52-884d-3727f6ae2cbe"
      },
      "driver": {
        "name": "ebs",
        "snapshot_id": "snap-03391430"
      },
      "volume" : {
        "name": "vol-1",
        "type": "",
        "uuid": "33cc5268-a27a-4134-b541-60c322428649"
      },
      "cluster": {
        "uuid": "4928e1ee-ed87-4bd1-99f4-1227e1192dbc",
        "name": "cluster-1"
      }
  }
  ]
}
