{
  "type": "object",
  "$schema": "http://json-schema.org/draft-03/schema",
  "id": "http://jsonschema.net",
  "required": true,
  
  "properties": {
    "MetricName": {
      "type": "string",
      "maximum": 255,
      "required": true
    },
    "Dimensions":{
      "type": "object",
      "required": true,
      "description": "Key-value pair, For detail, please reference the article 'Metrics 101' "
    },
    "Value":{
      "type": "number",
      "minimum": 8.515920e-109,
      "maximum": 1.174271e+108,
      "required": true
    },
    "Unit":{
      "type": "string",
      "description": "One of [Seconds, Microseconds, Milliseconds, Bytes, Kilobytes, Megabytes, Gigabytes, Terabytes, Bits, Kilobits, Megabits, Gigabits, Terabits, Percent, Count, Bytes/Second, Kilobytes/Second, Megabytes/Second, Gigabytes/Second, Terabytes/Second, Bits/Second, Kilobits/Second, Megabits/Second, Gigabits/Second, Terabits/Second, Count/Second, None]",
      "required": true
    }
  }
}