[
    {
        "nodes": {
            "last_heartbeat_time": "2017-07-20T05:28:26.804347Z",
            "status": "OUT_OF_GOAL_STATE",
            "last_goalstate_update": "2017-07-20T05:28:26.804325Z",
            "node_uuid": "cUDogZaD2PkPxuYQzDFnqa",
            "description": null,
            "ip_address": "1.1.1.1",
            "failure_info": {},
            "current_incarnation": null,
            "node_type": "",
            "env_uuid": "d655aa8f-c0a8-49e2-930c-203db6cc65bc",
            "health_state": "UNKNOWN",
            "goal_incarnation": 3,
            "first_unhealthy_time": "2017-07-20T05:28:26.804362Z"
        },
        "resources": {
            "configuration": {},
            "name": "swarm",
            "env_uuid": "d655aa8f-c0a8-49e2-930c-203db6cc65bc",
            "created_at": "2017-07-20T05:28:27.026382Z",
            "incarnation": 0,
            "updated_at": "2017-07-20T05:28:27.026409Z",
            "resource_uuid": "216dd6d6-2226-443f-817e-76848fd29121",
            "identifier": {
                "init_node": "172.31.1.1",
                "swarm_managers": [
                    "172.31.2.2",
                    "172.31.22.22"
                ],
                "swarm_workers": [
                    "172.31.3.3",
                    "172.31.33.33"
                ]
            },
            "type": "SWARM"
        }
    },
    {
        "nodes": {
            "last_heartbeat_time": "2017-07-20T05:28:26.804347Z",
            "status": "OUT_OF_GOAL_STATE",
            "last_goalstate_update": "2017-07-20T05:28:26.804325Z",
            "node_uuid": "cUDogZaD2PkPxuYQzDFnqa",
            "description": null,
            "ip_address": "1.1.1.1",
            "failure_info": {},
            "current_incarnation": null,
            "node_type": "",
            "env_uuid": "d655aa8f-c0a8-49e2-930c-203db6cc65bc",
            "health_state": "UNKNOWN",
            "goal_incarnation": 3,
            "first_unhealthy_time": "2017-07-20T05:28:26.804362Z"
        },
        "resources": {
            "configuration": {
                "log_driver": "json-file",
                "name": "nevermore",
                "network": "host"
            },
            "name": "nevermore",
            "env_uuid": "d655aa8f-c0a8-49e2-930c-203db6cc65bc",
            "created_at": "2017-07-20T05:28:26.912943Z",
            "incarnation": 0,
            "updated_at": "2017-07-20T05:28:26.912966Z",
            "resource_uuid": "c4a2eb1e-07c0-44ea-9581-a2c862742a6d",
            "identifier": {
                "image": "index.alauda.cn/mathildedev/nevermore:v1"
            },
            "type": "CONTAINERS"
        }
    }
]
