{
  "start": 1531050000,
  "end": 1531053600,
  "step": 60,
  "queries": [
    {
      // 随机生成的36位的uuid，用来区分查询结果中的每个监控指标分别是属于哪个query
      "id": "405d48edea8abfb397dff0b1869c3388926b",
      "aggregator": "avg",
      // 表示聚合时间，单位是s
      "range": 60,
      "labels": [
        {
          "name": "__name__",
          // 表示监控指标的类型，主机相关的监控指标的可选值如下：
          // 1. node.cpu.utilization, node.memory.utilization
          // 2. node.resource.request.cpu.utilization, node.resource.request.memory.utilization
          // 3. custom(如果是用户自定义的监控指标，这一项的值填custom)
          "value": "node.cpu.utilization"
        },
        {
          "name": "name",
          "value": "172.31.0.68"
        },
        {
          "name": "kind",
          "value": "Node"
        },
        {
          // 表示对应的prometheus的查询表达式，只有在监控指标是custom的情况下才起作用
          "name": "expr",
          "value": "sum(ALERTS{alertstate=\"firing\",alertname!=\"DeadMansSwitch\"})"
        }
      ]
    }
  ]
}
