{
    "total_items": 1,
    "total_pages": 1,
    "volumes": [
        {
            "id": "8bd7d4c6-7847-4357-ba6d-66d8fc0c7b23",
            "name": "vol-73b82703-8016-485d-99e6-8e5612cc3f2c-1",
            "size": 10,
            "driver_name": "ebs",
            "driver_volume_id": "vol-47ab15ce",
            "snapshot_id": "",
            "backup_url": "",
            "volume_type": "io1",
            "iops": 0,
            "state": "available",
            "bricks": "",
            "synced_at": "0001-01-01T00:00:00Z",
            "created_at": "2016-07-15T09:17:01.371091Z",
            "updated_at": "2016-07-15T09:17:01.371091Z",
            "namespace": "namespace",
            "region_id": "b61ea3eb-4576-4357-8800-ba5751180fa6",
            "pvc_name": "<persistent-volume-claim-name>",
            "pvc_uuid": "<uuid>"
        }
    ]
}