{
  "status_code": 200,
  "data": {
    "NODE": {
      "metrics": {
        "node-cpus-percent": {
          "base": 0.01,
          "unit": "percent"
        },
        "node-containers-count": {
          "unit": "count"
        },
        "node-mem-percent": {
          "base": 0.01,
          "unit": "percent"
        }
      }
    },
    "REGION": {
      "metrics": {
        "region-containers-count": {
          "unit": "count"
        },
        "region-nodes-count": {
          "unit": "count"
        },
        "region-cpus-percent": {
          "base": 0.01,
          "unit": "percent"
        },
        "region-mem-percent": {
          "base": 0.01,
          "unit": "percent"
        }
      }
    },
    "SERVICE": {
      "metrics": {
        "cpu-utilization": {
          "base": 0.01,
          "unit": "percent"
        },
        "healthy_instances": {
          "unit": "count"
        },
        "memory_utilization": {
          "base": 0.01,
          "unit": "percent"
        },
        "unhealthy_instances": {
          "unit": "count"
        }
      }
    }
  }
}