[
  {"message":"[Prepare][Prepare Workspace] > Worker scheduled on host: 10.2.0.9.","time":1509348580,"level":0},
  {"message":"[Prepare][Prepare Workspace] > Initializing the build workspace...","time":1509348580,"level":0}
]
