{
    "namespace": {
      "apiVersion": "v1",
      "kind": "Namespace",
      "metadata": {
        "name": "config"
      }
    },
    "resourcequota": {
      "apiVersion": "v1",
      "kind": "ResourceQuota",
      "metadata": {
        "name": "object-quota-demo",
        "namespace": "config"
      },
      "spec": {
        "hard": {
          "persistentvolumeclaims": "1",
          "services.loadbalancers": "2",
          "services.nodeports": "0"
        }
      }
    },
    "secret_data": {
      "secret_name": "docker-111",
      "name": "user_01",
      "email": "alauda@jfog.io",
      "tenant": "test_tenant",
      "namespace": "test_namespace",
      "password": "test_pwd",
      "account": "alauda",
      "endpoint": "alauda.jfrog.io"
    }
  }