{
    "space_uuid": "5bf09b2a-f86b-4610-addd-548258fb988e",
    "project_name": "",
    "uuid": "c30b985a-3064-4b9b-8e20-e584af7d97e8",
    "region_name": "app_test",
    "project_uuid": "",
    "region_uuid": "a40ac93f-1da1-4192-aa1a-11c360499f46",
    "region": "a40ac93f-1da1-4192-aa1a-11c360499f46",
    "created_by": "jliao",
    "services": [
        {
            "service_name": "eureka-test-1",
            "uuid": "cff46b0d-f616-4665-ac89-8f0d45107733",
            "region_id": "a40ac93f-1da1-4192-aa1a-11c360499f46"
        },
        {
            "service_name": "eureka-test-2",
            "uuid": "2bfbe727-f5a2-4200-b3c8-b39b61b18ffa",
            "region_id": "a40ac93f-1da1-4192-aa1a-11c360499f46"
        }
    ],
    "operator": "jliao",
    "space_name": "int-azure",
    "operation": "create",
    "app_name": "eureka-test"
}
