{
  "name": "zookeeper",
  "avatar": "url",
  "info": {
    "en": "This template creates a multinodes zookeeper cluster on top of alauda.",
    "zh": "该模板用于在灵雀云上部署 ZooKeeper 集群"
  },
  "instruction": {
    "en": "Enter the number of nodes, instance size, data dir, etc. for the zookeeper cluster.\n Change the following ZooKeeper default parameters, if you need: \n * Data Dir: Directory where zookeeper store data (default value:  /tmp/zookeeper)\n * Tick Time: The number of millisecondes of each tick (default value: 2000) \n * Init Limit: The number of ticks that the initial synchronization phase can take (default value: 10) \n * Sync Limit: The number of ticks that can pass between sending a request and getting an acknowledgement \n \n Click deploy. done! \n \n Note: Scaling the cluster are not supported, yet.",
    "zh": "配置 ZooKeeper 集群的节点数，实例大小，数据存储位置等等\n 如果需要的话，可以修改 ZooKeeper 的默认参数：\n * Data Dir: 存放 ZooKeeper 数据的位置（默认值：/tmp/zookeeper) \n * Tick Time: 每个 tick 的毫秒数（默认值：2000）\n * Init Limit: 首次同步时可以用的 tick 数（默认值10）\n * Sync Limit: 发送请求与收到回应之间可用的最大 tick 数 \n \n 点击部署即可。（注意：暂时不支持更新操作）"
  },
  "basic_config": [
      {
        "type": "int",
        "attribute_name": "num_of_nodes",
        "display_name": {
          "en": "Number of Nodes",
          "zh": "集群节点数"
        },
        "description": {
          "en": "Desired cluster size. 3, 5, or 7 are good choices. You will need this many hosts to reach your desired scale.",
          "zh": "实例数量，最好是填3，5，7这样的奇数。当然你需要有这么多的主机才能成功部署"
        }
      }, {
        "type": "option",
        "attribute_name": "cluster_size",
        "display_name": {
          "en": "Instance Size",
          "zh": "实例大小"
        },
        "description": {
          "en": "size of instances",
          "zh": "实例大小"
        },
        "option": [
          "XXS", "XS", "S", "M", "L", "XL"
        ]
      },
      {
        "type": "multi_option",
        "attribute_name": "ip_tag",
        "display_name": {
          "en": "Node Tag",
          "zh": "主机标签"
        },
        "description": {
          "en": "deploy to specific host",
          "zh": "定点部署",
        },
        "option": [
          ["10.172.230.213", "10.171.129.10", "10.171.128.37"]
        ]
      }
  ],
  "advanced_config": [ {
      "type": "string",
      "attribute_name": "data_dir",
      "display_name": {
        "en": "Data Dir",
        "zh": "Data Dir"
      },
      "description": {
        "en": "Directory where zookeeper store data",
        "zh": "Directory where zookeeper store data"
      },
      "default_value": "/tmp/zookeeper"
    }, {
      "type": "int",
      "attribute_name": "tick_time",
      "display_name": {
        "en": "Tick Time",
        "zh": "Tick Time"
      },
      "description": {
        "en": "The number of millisecondes of each tick",
        "zh": "The number of millisecondes of each tick"
      },
      "default_value": 2000,
      "max_value": 3000,
      "min_value": 1000
    }, {
      "type": "int",
      "attribute_name": "init_limit",
      "display_name": {
        "en": "Init Limit",
        "zh": "Init Limit"
      },
      "description": {
        "en": "The number of ticks that the initial synchronization phase can take",
        "zh": "The number of ticks that the initial synchronization phase can take"
      },
      "default_value": 10,
      "max_value": 20,
      "min_value": 5
    }, {
      "type": "string",
      "attribute_name": "sync_limit",
      "display_name": {
        "en": "Sync Limit",
        "zh": "Sync Limit"
      },
      "description": {
        "en": "The number of ticks that can pass between sending a request and getting an acknowledgement",
        "zh": "The number of ticks that can pass between sending a request and getting an acknowledgement"
      }
    }
  ]
}
