{
  "name": "resource_name",
  "uuid": "resource_uuid",
  "type": "resource_type",
  "alarms": [
    {
      "name": "alarm_name",
      "uuid": "alarm_uuid",
      "action_type": "scaling_in|scaling_out",
      "severity_level": "OK|ALARM|INSUFFICIENT_DATA",
      "status": "OK|ALARM|INSUFFICIENT_DATA"
    }
  ]
}
