[
  {
    "address": "127.0.0.1:1111,127.0.0.1:1112"
  },
  {
    "git_address": "http://git.alauda.cn/{application}-config",
    "kafka_hosts": "127.0.0.1,127.0.0.2",
    "kafka_port": "1111",
    "cloud_bus_topic":"springCouldBusA",
    "zookeeper_hosts":"127.0.0.1,127.0.0.2,127.0.0.3",
    "zookeeper_port": "2181"
  }
]
