{
  "spaces-namespaces": [{
    "namespace_name": "ns1",
    "namespace_uuid": "715f73df-40f8-43b4-bf7a-fe5252a0069e",
    "space_name": "dev-space1",
    "space_uuid": "4a42a89f-c5f6-4614-bc7c-4427b5aeab16"
  }, {
    "namespace_name": "ns2",
    "namespace_uuid": "725f73df-40f8-43b4-bf7a-fe5252a0069e",
    "space_name": "dev-space1",
    "space_uuid": "4a42a89f-c5f6-4614-bc7c-4427b5aeab16"
  }, {
    "namespace_name": "ns2",
    "namespace_uuid": "725f73df-40f8-43b4-bf7a-fe5252a0069e",
    "space_name": "dev-space2",
    "space_uuid": "289fb50b-631e-4142-bd44-488a1a76d3b0"
  }]
}