{
  "config_uuid": "111",
  "config_name": "job-test",
  "project_name": "test",
  "space_name": "test",
  "region_name": "INT",
  "schedule_rule": "*****",
  "command_type": "DEFAULT_COMMAND | CUSTOM_COMMAND",
  "command": "/run.sh",
  "registry_index": "index.alauda.cn",
  "registry_name": "alauda_public_registry",
  "registry_project": "alaudaorg",
  "image_name": "hello-world",
  "image_tag": "latest",
  "envvars": [
    {
      "name": "",
      "value": ""
    },
    {
      "name": "",
      "value": ""
    }
  ],
  "envfiles": [
    {
      "uuid": "123",
      "name": "test-env-1"
    },
    {
      "uuid": "321",
      "name": "test-env-2"
    }
  ],
  "timeout": "120",
  "cpu": 0.5,
  "memory": 512,
  "created_by": "test",
  "created_at": "",
  "updated_at": ""
}
