[
    {
        "uuid": "123-123-123",
        "name": "template-name",
        "display_name": "开发工程师",
        "display_name_en": "Developer", // used only when official == true
        "description": "",
        "official": true,
        "created_by": "john",
        "created_at":"2016-01-01T10:10:10Z",
        "updated_at":"2016-01-01T10:10:10Z"
    }
]