{
  "uuid": "99435da1-4915-4d32-87c2-5e1c984a6689",
  "is_active": true,
  "name": "mysql",
  "display_name": "my mysql",
  "description": "mysql is a database",
  "versions": [
    {
      "version_uuid":"82435da1-4915-4d32-87c2-5e1c984a6689",
      "values_yaml_content": "the yaml content"
    }
  ]
}
