{
  "stages": [{
    "uuid": "assd-asdad-asdad",
    "stage_uuid": "aaa-dddd-cccc-dd",
    "order": 1,
    "region_uuid": "123123213-21312312-31",
    "status": "ongoing",
    "name": "stage name",
    "tasks": [{
        "uuid": "assd-asdad-asdad",
        "order": 1,
        "name": "task-one",
        "type": "test-container",
        "region_uuid": "123123213-21312312-31",
        "status": "ongoing",
        "data": {
          "registry_uuid": "",
          "registry_index": "index.docker.io",
          "docker_image_tag": "library/redis",
          "link": {
            "type": "service",
            "parent": "",
            "parent_uuid": "",
            "name": "service-one",
            "uuid": "7d3f21e8-9e26-4028-92a4-9d01c0b78b93"
          },
          "command": "",
          "env_file_uuid": "12312312-1231231-123123",
          "env_vars": {
            "PORT": "80"
          }
        },
        "timeout": 0,
        "started_at": "2016-01-01T10:10:10Z",
        "ended_at": "2016-01-01T10:10:10Z"
      },
      {
        "uuid": "12323-123123-123",
        "order": 2,
        "name": "task-two",
        "type": "artifact-upload", // or "artifact-download"
        "data": {
          "share_path": "crm/website"
        },
        "timeout": 0
      },
      {
        "uuid": "12323-123123-123",
        "order": 3,
        "name": "task-three",
        "type": "sync-registry",
        "data": {
          "config_uuid": "config_uuid",
          "config_name": "config_name",
          "share_path": "/images/<namespace>/<project>/<image_repo_name>"
        },
        "timeout": 60
      }
    ],
    "started_at": "2016-01-01T10:10:10Z",
    "ended_at": ""
  }],
  "on_end": [{
    "order": 1,
    "name": "task-final",
    "type": "notification",
    "status": "pending",
    "data": {
      "notification_uuid": ""
    },
    "timeout": 60,
    "started_at": "2016-01-01T10:10:10Z",
    "ended_at": "2016-01-01T10:10:10Z"
  }]
}