{
    "container": "96c98c3697cfb061f24998105f6db95f9ab222a7a3de664908eb791441553f5c",
    "parent": "c715b6235bdcef3631fce7deecea8812d70247a6cb535e489ef3240b906590bd",
    "created": "2017-10-25T03:42:27.786923331Z",
    "os": "linux",
    "container_config": {
        "Tty": false,
        "Cmd": [
            "/bin/sh",
            "-c",
            "echo \"hello, simple\" &&     echo \"hello, sinple0\" > hello.txt &&     echo \"hello, sinple1\" >> hello.txt &&     echo \"hello, sinple2\" >> hello.txt &&     echo \"hello, sinple3\" >> hello.txt &&     echo \"hello, sinple4\" >> hello.txt &&     echo \"hello, sinple5\" >> hello.txt &&     echo \"hello, sinple6\" >> hello.txt"
        ],
        "Volumes": null,
        "Domainname": "",
        "WorkingDir": "",
        "Image": "sha256:1a19a71e5d38263444f8951b7b997e32c0ccc453d5b486c1ea46d597b299afd1",
        "Hostname": "96c98c3697cf",
        "StdinOnce": false,
        "ArgsEscaped": true,
        "Labels": {},
        "AttachStdin": false,
        "User": "",
        "Env": [
            "PATH=/usr/local/sbin:/usr/local/bin:/usr/sbin:/usr/bin:/sbin:/bin"
        ],
        "Entrypoint": null,
        "OnBuild": [],
        "AttachStderr": false,
        "AttachStdout": false,
        "OpenStdin": false
    },
    "architecture": "amd64",
    "docker_version": "1.12.6",
    "config": {
        "Tty": false,
        "Cmd": [
            "/bin/sh"
        ],
        "Volumes": null,
        "Domainname": "",
        "WorkingDir": "",
        "Image": "sha256:1a19a71e5d38263444f8951b7b997e32c0ccc453d5b486c1ea46d597b299afd1",
        "Hostname": "96c98c3697cf",
        "StdinOnce": false,
        "ArgsEscaped": true,
        "Labels": {},
        "AttachStdin": false,
        "User": "",
        "Env": [
            "PATH=/usr/local/sbin:/usr/local/bin:/usr/sbin:/usr/bin:/sbin:/bin"
        ],
        "Entrypoint": null,
        "OnBuild": [],
        "AttachStderr": false,
        "AttachStdout": false,
        "OpenStdin": false
    },
    "id": "5da05ed5c861c2602a68bc32c247888951abf73880f2bec761ebdac3d103efae"
}
