{
  "usernames": ["johndoe", "mark"],
  "roles": [
    {
      "uuid": "123-321-123-321",
      "name": "roles"
    }
  ],
  "password": "",
  "realname": "",
  "department": "研发部门",
  "position": "后端开发",
  "office_address": "北京中关村",
  "mobile": "15515515533",
  "email": "xxx@xx.com",
  "landline_phone": "",
  "extra_info": ""
}
