{
  "count": 2,
  "next": "?page=2",
  "previous": null,
  "page_size": 1,
  "num_pages": 2,
  "result":
    [
      {
        "uuid": "38e94828-211c-42bc-4505-eb4fc5c5e491",
        "name": "ct-test1",
        "space_name": "space1",
        "space_uuid": "7fe94828-211c-42bc-4505-eb4fc5c5e491",
        "project_name": "project1",
        "project_uuid": "8fe94828-211c-42bc-4505-eb4fc5c5e491",
        "description": "Just for test",
        "private_key": "",
        "public_cert": "",
        "is_used": false,
        "status": "Normal",
        "service_count": 0,
        "privilege": "W",
        "created_by": "other",
        "created_at": "2017-04-18T05:02:06.215984Z",
        "updated_at": "2017-04-18T05:02:06.215984Z"
      },
      {
        "uuid": "38e94828-211c-42bc-4505-eb4fc5c5e491",
        "name": "ct-test2",
        "space_name": "space1",
        "space_uuid": "7fe94828-211c-42bc-4505-eb4fc5c5e491",
        "project_name": "project1",
        "project_uuid": "8fe94828-211c-42bc-4505-eb4fc5c5e491",
        "description": "Just for test2",
        "private_key": "",
        "public_cert": "",
        "is_used": false,
        "status": "Illegal",
        "service_count": 0,
        "privilege": "A",
        "created_by": "jhshi",
        "created_at": "2017-04-18T05:02:06.215984Z",
        "updated_at": "2017-04-18T05:02:06.215984Z"
      }
   ]
}
