{
  "namespace": "alauda",
  "name": "WISP_ENDPOINT",
  "created_at": "2018-06-24T17:53:02.472432Z",
  "updated_at": "2018-05-24T17:53:02.472432Z",
  "value": "http://wisp",
  "type": "environment",
  "extra": "",
  "id": 1
}