{
  "id": "11e11161-750a-4e3e-a774-fd272b2f794c",
  "created_at": "2016-12-31T10:12:12Z",
  "updated_at": "2016-12-31T10:12:12Z",
  "description": "this is an example config.",
  "current_version": "a40fb064-f7de-4aab-9360-704e0ecf95fd",
  "commit_message": "initial commit",
  "content": [
      {
          "key": "name1",
          "value": "value1",
          "type": "text"
      },
      {
          "key": "name2",
          "value": "value2",
          "type": "text"
      }
  ]
}
