[
  {
    "id": "25ba4139-5493-4fea-9d82-3e37b40c2ca6",
    "customer": {
      "type": "SERVICE",
      "name": "test_service",
      "id": "a40fb064-f7de-4aab-9360-704e0ecf95fd"
    },
    "version": "1392aeb3-4eb4-4256-9760-80d40610c621",
    "created_at": "2017-01-09T04:08:29.217476"
  }
]
