{
  "resource": {
    "name": "instancename",
    "uuid": "uuid",
    "created_at": "",
    "updated_at": "",
    "create_by": ""
  },
  "cluster": {
    "uuid": "edc70f4a-ee71-40b1-9cc7-cd5569bead2d",
    "name": "cluster-1"
  },
  "namespace": {
    "uuid": "4928e1ee-ed87-4bd1-99f4-1227e1192dbc",
    "name": "default"
  },
  "kubernetes":{
    "apiVersion": "servicecatalog.k8s.io/v1beta1",
  	"kind": "ServiceInstance",
  	"metadata": {
  		"name": "ups-instance",
  		"namespace": "test-ns",

    },
    "spec": {
      "clusterServiceClassExternalName": "mariadb",
      "clusterServicePlanExternalName": "default",
      "parameters": {
        "key1": "value1",
        "key2": "value2"
      }
  	}
  },
  "clusterserviceplan": {
      "kubernetes": {
        "clusterServiceClassRef": "class name",
        "name": "name",
        "uuid": "uuid",
        "clusterServiceBrokerName": "broker name",
        "bindable": true,
        "externalName": "fake-plan-1",
        "externalID": "d3031751-XXXX-XXXX-XXXX-a42377d3320e",
        "description": "Shared fake Server, 5tb persistent disk, 40 max concurrent connections",
        "free": false,
        "externalMetadata": {
          "max_storage_tb": 5,
          "costs": [
            {
              "amount": {
                "usd": 99
              },
              "unit": "MONTHLY"
            },
            {
              "amount": {
                "usd": 0.99
              },
              "unit": "1GB of messages over 20GB"
            }
          ],
          "bullets": [
            "Shared fake server",
            "5 TB storage",
            "40 concurrent connections"
          ]
        }
      }
    }  
}
