{
  "count": 10,
  "count_result": [
    {
      "status": "OK",
      "custom_status": "OK",
      "count": 8
    },
    {
      "status": "ERROR",
      "custom_status": "ALARM",
      "count": 1
    },
    {
      "status": "ERROR",
      "custom_status": "INSUFFICIENT_DATA",
      "count": 1
    }
  ]
}
