{
  "required": true,
  "properties": {
    "name": {
      "type": "string",
      "required": true
    },
    "description": {
      "type": "string",
      "required": false
    },
    "alarm_actions": {
      "type": "object",
      "required": false
    },
    "insufficient_actions": {
      "type": "object",
      "required": false
    },
    "ok_actions": {
      "type": "object",
      "required": false
    },
    "severity_level": {
      "type": "string",
      "required": false
    },
    "notify_interval": {
      "type": "string",
      "required": false
    },
    "metric_name": {
      "type": "string",
      "required": false
    },
    "statistic": {
      "type": "string",
      "required": true
    },
    "comparison_operator": {
      "type": "string",
      "required": true
    },
    "period": {
      "type": "string",
      "required": true
    },
    "threshold": {
      "type": "number",
      "required": true
    },
    "tags": {
      "type": "object",
      "required": true
    },
    "exclude_tags": {
      "type": "object",
      "required": false
    },
    "updated_by": {
      "type": "string",
      "required": true
    }
  }
}
