[
    {
        "service_id": "f22e2705-3a8b-4031-858e-0c6ac6668f96",
        "container_port": 80,
        "weight": 100
    },
    {
        "service_id": "6fa6e670-61ea-4f4f-914d-54d19872700b",
        "container_port": 80,
        "weight": 100
    }
]