[
  {
    "uuid": "4d255a44-b075-4352-9526-0fb1ec1cc2a2",
    "display_name": "xxx",
    "name": "xxx",
    "start_time": "-300",
    "end_time": "0",
    "created_by": "cfshang",
    "used_at": 1500018179,
    "created_at": 1500018179,
    "updated_at": 1500018179,
    "query_conditions":{
      "clusters": ["INT_ALI", "class"],
      "nodes": ["10.0.0.7"]
    }
  },
  {
    "uuid": "4d255a44-b075-4352-9526-0fb1ec1cc2a2",
    "display_name": "yyy",
    "name": "yyy",
    "start_time": "-300",
    "end_time": "0",
    "created_by": "cfshang",
    "used_at": 1500018179,
    "created_at": 1500018179,
    "updated_at": 1500018179,
    "query_conditions":{
      "clusters": ["INT_ALI", "class"]
    }
  }
]
