{
    "basic_config": {
        "cluster_size": "M",
        "node_tag": [
              {"tag_a_key" : "tag_a_value"},
              {"tag_b_key" : "tag_b_value"}
        ],
        "image_tag": "liaoj-dev",
        "internal_port": 1112,
        "app_tag": [
          {"type":"turbine"}
        ],
        "pod_anti_affinity": [
          {"type":"zuul"}
        ]
    },
    "advanced_config": {
      "config_server_selector": "a9b2d589-3ad7-43dc-9ad5-147239044f98"
    },
    "space_name": "int-azure",
    "name": "eureka-test",
    "region": "app_test",
    "region_alb_version": "v2",
    "namespace": "admin",
    "eureka_port":"1111"
}
