{
    "mesos-slave": [
        {
            "private_ip": "172.31.38.19",
            "resources": {
                "avail_disk": "93.3G",
                "total_cpus": "8",
                "total_mem": "30.4G"
            }
        },
        {
            "private_ip": "172.31.43.200",
            "resources": {
                "avail_disk": "93.3G",
                "total_cpus": "4",
                "total_mem": "14.7G"
            }
        },
        {
            "private_ip": "172.31.33.176",
            "resources": {
                "avail_disk": "93.3G",
                "total_cpus": "4",
                "total_mem": "14.7G"
            }
        }
    ]
}