[
  {
    "apiVersion": "v1",
    "kind": "Service",
    "metadata": {
      "creationTimestamp": "2018-08-17T06:15:03Z",
      "labels": {
        "app": "nginx"
      },
      "name": "web",
      "namespace": "default",
      "resourceVersion": "2804700",
      "selfLink": "/api/v1/namespaces/default/services/web",
      "uid": "e0d6f71e-a1e4-11e8-802e-5254004f2ad2"
    },
    "spec": {
      "clusterIP": "None",
      "ports": [
        {
          "port": 8080,
          "protocol": "TCP",
          "targetPort": 8080
        }
      ],
      "selector": {
        "app": "nginx"
      },
      "sessionAffinity": "None",
      "type": "ClusterIP"
    },
    "status": {
      "loadBalancer": {}
    }
  }, {
    "kind": "Deployment",
    "apiVersion": "extensions/v1beta1",
    "metadata": {
      "name": "test",
      "namespace": "default",
      "selfLink": "/apis/extensions/v1beta1/namespaces/default/deployments/test",
      "uid": "e0e7b14c-a1e4-11e8-802e-5254004f2ad2",
      "resourceVersion": "2808698",
      "generation": 2,
      "creationTimestamp": "2018-08-17T06:15:03Z",
      "deletionTimestamp": "2018-08-17T07:09:20Z",
      "deletionGracePeriodSeconds": 0,
      "labels": {
        "app": "nginx"
      },
      "initializers": {
        "pending": [
          {
            "name": "lxcfs.initializer.kubernetes.io"
          }
        ]
      },
      "finalizers": [
        "orphan"
      ]
    },
    "spec": {
      "replicas": 1,
      "selector": {
        "matchLabels": {
          "app": "nginx"
        }
      },
      "template": {
        "metadata": {
          "creationTimestamp": null,
          "labels": {
            "app": "nginx"
          }
        },
        "spec": {
          "containers": [
            {
              "name": "nginx-app",
              "image": "nginx:1.9.0",
              "ports": [
                {
                  "name": "web",
                  "containerPort": 82,
                  "protocol": "TCP"
                }
              ],
              "resources": {},
              "terminationMessagePath": "/dev/termination-log",
              "terminationMessagePolicy": "File",
              "imagePullPolicy": "IfNotPresent"
            }
          ],
          "restartPolicy": "Always",
          "terminationGracePeriodSeconds": 30,
          "dnsPolicy": "ClusterFirst",
          "securityContext": {},
          "schedulerName": "default-scheduler"
        }
      },
      "strategy": {
        "type": "RollingUpdate",
        "rollingUpdate": {
          "maxUnavailable": 1,
          "maxSurge": 1
        }
      },
      "revisionHistoryLimit": 10,
      "progressDeadlineSeconds": 600
    },
    "status": {}
  }
]
