{
    "metadata": {
      "annotations": {
        "kubectl.kubernetes.io/last-applied-configuration": "{\"apiVersion\":\"v1\",\"data\":{\"key\":\"value\"},\"kind\":\"ConfigMap\",\"metadata\":{\"annotations\":{},\"labels\":{\"example\":\"data\"},\"name\":\"test\",\"namespace\":\"default\"}}\n"
      },
      "creationTimestamp": null,
      "labels": {
        "example": "data",
        "key": null
      }
    }
  }