{
    "kind": "Namespace",
    "apiVersion": "v1",
    "metadata": {
      "name": "ff",
      "selfLink": "/api/v1/namespaces/ff",
      "uid": "baebd3d4-5bf9-11e8-8881-000d3a80fc40",
      "resourceVersion": "273106",
      "creationTimestamp": "2018-05-20T06:47:57Z",
      "deletionTimestamp": "2018-05-20T06:48:01Z"
    },
    "spec": {
      "finalizers": [
        "kubernetes"
      ]
    },
    "status": {
      "phase": "Terminating"
    }
  }