{
    "resource": {
      "name": "app-name",
      "description": "Test apps",
      "source": "CATALOG",
      "category": "test",
      // optional. 创建方式.  默认为YAML
      "create_method": "YAML/UI"
    },
    "namespace": {
      "uuid": "4928e1ee-ed87-4bd1-99f4-1227e1192dbc",
      "name": "default"
    },
    "cluster": {
      "uuid": "edc70f4a-ee71-40b1-9cc7-cd5569bead2d",
      "name": "cluster-1"
    },
    "kubernetes": [
      "<example-app-yaml-for-kubernetes>"
    ]
  }