[
  {
    "code_repo_client": "GITHUB",
    "is_authed": false,
    "auth_url": "https://hostname/auth"
  },
  {
    "code_repo_client": "BITBUCKET",
    "is_authed": true,
    "auth_url": ""
  },
  {
    "code_repo_client": "OSCHINA",
    "is_authed": true,
    "auth_url": ""
  }
]