{
    // simpel svn
    "repos": "https://svntest.com/test/",
    "rev": "17",
    "committer": "abc" // ''

    // simple git
    "branch_name": "feat/add-payload",
    "commit_id": "6c11ffd0c0dc00ef431b98b88ed71e1657d4b1b4"
    "committer": "abc", // ''

    // github
    "ref": "refs/heads/alauda-pipeline",
    "before": "d557dac7b48c3ee5f51a95a13ffb12a9b284699c",
    "after": "7b13c569c4fadf2f185720bb801fbb03f6e67700",
    "created": false,
    "deleted": false,
    "forced": false,
    "base_ref": null,
    "compare": "https://github.com/adolphlwq/test/compare/d557dac7b48c...7b13c569c4fa",
    "commits": [
        {
        "id": "7b13c569c4fadf2f185720bb801fbb03f6e67700",
        "tree_id": "db2e4104afb97aaeb731d91e3f190be236bee0cd",
        "distinct": true,
        "message": "update",
        "timestamp": "2018-04-02T14:26:53+08:00",
        "url": "https://github.com/adolphlwq/test/commit/7b13c569c4fadf2f185720bb801fbb03f6e67700",
        "author": {
            "name": "adolphlwq",
            "email": "kenan3015@gmail.com",
            "username": "adolphlwq"
        },
        "committer": {
            "name": "adolphlwq",
            "email": "kenan3015@gmail.com",
            "username": "adolphlwq"
        },
        "added": [

        ],
        "removed": [

        ],
        "modified": [
            "README.md"
        ]
        }
    ],
    "head_commit": {
        "id": "7b13c569c4fadf2f185720bb801fbb03f6e67700",
        "tree_id": "db2e4104afb97aaeb731d91e3f190be236bee0cd",
        "distinct": true,
        "message": "update",
        "timestamp": "2018-04-02T14:26:53+08:00",
        "url": "https://github.com/adolphlwq/test/commit/7b13c569c4fadf2f185720bb801fbb03f6e67700",
        "author": {
            "name": "adolphlwq",
            "email": "kenan3015@gmail.com",
            "username": "adolphlwq"
        },
        "committer": {
            "name": "adolphlwq",
            "email": "kenan3015@gmail.com",
            "username": "adolphlwq"
        },
        "added": [

        ],
        "removed": [

        ],
        "modified": [
            "README.md"
        ]
    },
    "repository": {
        "id": 64375904,
        "name": "test",
        "full_name": "adolphlwq/test",
        "owner": {
            "name": "adolphlwq",
            "email": "kenan3015@gmail.com",
            "login": "adolphlwq",
            "id": 9915368,
            "avatar_url": "https://avatars2.githubusercontent.com/u/9915368?v=4",
            "gravatar_id": "",
            "url": "https://api.github.com/users/adolphlwq",
            "html_url": "https://github.com/adolphlwq",
            "followers_url": "https://api.github.com/users/adolphlwq/followers",
            "following_url": "https://api.github.com/users/adolphlwq/following{/other_user}",
            "gists_url": "https://api.github.com/users/adolphlwq/gists{/gist_id}",
            "starred_url": "https://api.github.com/users/adolphlwq/starred{/owner}{/repo}",
            "subscriptions_url": "https://api.github.com/users/adolphlwq/subscriptions",
            "organizations_url": "https://api.github.com/users/adolphlwq/orgs",
            "repos_url": "https://api.github.com/users/adolphlwq/repos",
            "events_url": "https://api.github.com/users/adolphlwq/events{/privacy}",
            "received_events_url": "https://api.github.com/users/adolphlwq/received_events",
            "type": "User",
            "site_admin": false
        },
        "private": false,
        "html_url": "https://github.com/adolphlwq/test",
        "description": "A simple project for test",
        "fork": false,
        "url": "https://github.com/adolphlwq/test",
        "forks_url": "https://api.github.com/repos/adolphlwq/test/forks",
        "keys_url": "https://api.github.com/repos/adolphlwq/test/keys{/key_id}",
        "collaborators_url": "https://api.github.com/repos/adolphlwq/test/collaborators{/collaborator}",
        "teams_url": "https://api.github.com/repos/adolphlwq/test/teams",
        "hooks_url": "https://api.github.com/repos/adolphlwq/test/hooks",
        "issue_events_url": "https://api.github.com/repos/adolphlwq/test/issues/events{/number}",
        "events_url": "https://api.github.com/repos/adolphlwq/test/events",
        "assignees_url": "https://api.github.com/repos/adolphlwq/test/assignees{/user}",
        "branches_url": "https://api.github.com/repos/adolphlwq/test/branches{/branch}",
        "tags_url": "https://api.github.com/repos/adolphlwq/test/tags",
        "blobs_url": "https://api.github.com/repos/adolphlwq/test/git/blobs{/sha}",
        "git_tags_url": "https://api.github.com/repos/adolphlwq/test/git/tags{/sha}",
        "git_refs_url": "https://api.github.com/repos/adolphlwq/test/git/refs{/sha}",
        "trees_url": "https://api.github.com/repos/adolphlwq/test/git/trees{/sha}",
        "statuses_url": "https://api.github.com/repos/adolphlwq/test/statuses/{sha}",
        "languages_url": "https://api.github.com/repos/adolphlwq/test/languages",
        "stargazers_url": "https://api.github.com/repos/adolphlwq/test/stargazers",
        "contributors_url": "https://api.github.com/repos/adolphlwq/test/contributors",
        "subscribers_url": "https://api.github.com/repos/adolphlwq/test/subscribers",
        "subscription_url": "https://api.github.com/repos/adolphlwq/test/subscription",
        "commits_url": "https://api.github.com/repos/adolphlwq/test/commits{/sha}",
        "git_commits_url": "https://api.github.com/repos/adolphlwq/test/git/commits{/sha}",
        "comments_url": "https://api.github.com/repos/adolphlwq/test/comments{/number}",
        "issue_comment_url": "https://api.github.com/repos/adolphlwq/test/issues/comments{/number}",
        "contents_url": "https://api.github.com/repos/adolphlwq/test/contents/{+path}",
        "compare_url": "https://api.github.com/repos/adolphlwq/test/compare/{base}...{head}",
        "merges_url": "https://api.github.com/repos/adolphlwq/test/merges",
        "archive_url": "https://api.github.com/repos/adolphlwq/test/{archive_format}{/ref}",
        "downloads_url": "https://api.github.com/repos/adolphlwq/test/downloads",
        "issues_url": "https://api.github.com/repos/adolphlwq/test/issues{/number}",
        "pulls_url": "https://api.github.com/repos/adolphlwq/test/pulls{/number}",
        "milestones_url": "https://api.github.com/repos/adolphlwq/test/milestones{/number}",
        "notifications_url": "https://api.github.com/repos/adolphlwq/test/notifications{?since,all,participating}",
        "labels_url": "https://api.github.com/repos/adolphlwq/test/labels{/name}",
        "releases_url": "https://api.github.com/repos/adolphlwq/test/releases{/id}",
        "deployments_url": "https://api.github.com/repos/adolphlwq/test/deployments",
        "created_at": 1469692839,
        "updated_at": "2016-11-25T12:59:11Z",
        "pushed_at": 1522650435,
        "git_url": "git://github.com/adolphlwq/test.git",
        "ssh_url": "git@github.com:adolphlwq/test.git",
        "clone_url": "https://github.com/adolphlwq/test.git",
        "svn_url": "https://github.com/adolphlwq/test",
        "homepage": "https://adolphlwq.xyz/",
        "size": 16,
        "stargazers_count": 0,
        "watchers_count": 0,
        "language": "Python",
        "has_issues": true,
        "has_projects": true,
        "has_downloads": true,
        "has_wiki": true,
        "has_pages": false,
        "forks_count": 0,
        "mirror_url": null,
        "archived": false,
        "open_issues_count": 1,
        "license": null,
        "forks": 0,
        "open_issues": 1,
        "watchers": 0,
        "default_branch": "master",
        "stargazers": 0,
        "master_branch": "master"
    },
    "pusher": {
        "name": "adolphlwq",
        "email": "kenan3015@gmail.com"
    },
    "sender": {
        "login": "adolphlwq",
        "id": 9915368,
        "avatar_url": "https://avatars2.githubusercontent.com/u/9915368?v=4",
        "gravatar_id": "",
        "url": "https://api.github.com/users/adolphlwq",
        "html_url": "https://github.com/adolphlwq",
        "followers_url": "https://api.github.com/users/adolphlwq/followers",
        "following_url": "https://api.github.com/users/adolphlwq/following{/other_user}",
        "gists_url": "https://api.github.com/users/adolphlwq/gists{/gist_id}",
        "starred_url": "https://api.github.com/users/adolphlwq/starred{/owner}{/repo}",
        "subscriptions_url": "https://api.github.com/users/adolphlwq/subscriptions",
        "organizations_url": "https://api.github.com/users/adolphlwq/orgs",
        "repos_url": "https://api.github.com/users/adolphlwq/repos",
        "events_url": "https://api.github.com/users/adolphlwq/events{/privacy}",
        "received_events_url": "https://api.github.com/users/adolphlwq/received_events",
        "type": "User",
        "site_admin": false
    },

    // bitbucket
    "push": {
        "changes": [
          {
            "forced": false,
            "old": {
              "type": "branch",
              "name": "feat/multiple_report",
              "links": {
                "commits": {
                  "href": "https://api.bitbucket.org/2.0/repositories/mathildetech/taliyah/commits/feat/multiple_report"
                },
                "self": {
                  "href": "https://api.bitbucket.org/2.0/repositories/mathildetech/taliyah/refs/branches/feat/multiple_report"
                },
                "html": {
                  "href": "https://bitbucket.org/mathildetech/taliyah/branch/feat/multiple_report"
                }
              },
              "target": {
                "hash": "cda3a85b602db4e75227fd5e8cec3b4729665d50",
                "links": {
                  "self": {
                    "href": "https://api.bitbucket.org/2.0/repositories/mathildetech/taliyah/commit/cda3a85b602db4e75227fd5e8cec3b4729665d50"
                  },
                  "html": {
                    "href": "https://bitbucket.org/mathildetech/taliyah/commits/cda3a85b602db4e75227fd5e8cec3b4729665d50"
                  }
                },
                "author": {
                  "raw": "fanyang <fanyang@alauda.io>",
                  "type": "author",
                  "user": {
                    "username": "yangfan616",
                    "type": "user",
                    "display_name": "fanyang",
                    "uuid": "{8ea425e8-9325-4e26-b56e-6e9651453d1e}",
                    "links": {
                      "self": {
                        "href": "https://api.bitbucket.org/2.0/users/yangfan616"
                      },
                      "html": {
                        "href": "https://bitbucket.org/yangfan616/"
                      },
                      "avatar": {
                        "href": "https://bitbucket.org/account/yangfan616/avatar/32/"
                      }
                    }
                  }
                },
                "summary": {
                  "raw": "add\n",
                  "markup": "markdown",
                  "html": "<p>add</p>",
                  "type": "rendered"
                },
                "parents": [
                  {
                    "type": "commit",
                    "hash": "18686a8e374864beca843a46fc1e63d473bff0ee",
                    "links": {
                      "self": {
                        "href": "https://api.bitbucket.org/2.0/repositories/mathildetech/taliyah/commit/18686a8e374864beca843a46fc1e63d473bff0ee"
                      },
                      "html": {
                        "href": "https://bitbucket.org/mathildetech/taliyah/commits/18686a8e374864beca843a46fc1e63d473bff0ee"
                      }
                    }
                  }
                ],
                "date": "2018-04-03T03:42:24+00:00",
                "message": "add\n",
                "type": "commit"
              }
            },
            "links": {
              "commits": {
                "href": "https://api.bitbucket.org/2.0/repositories/mathildetech/taliyah/commits?include=1d5abfe37c3af6ad88862afb9ea32347c52c87c8&exclude=cda3a85b602db4e75227fd5e8cec3b4729665d50"
              },
              "html": {
                "href": "https://bitbucket.org/mathildetech/taliyah/branches/compare/1d5abfe37c3af6ad88862afb9ea32347c52c87c8..cda3a85b602db4e75227fd5e8cec3b4729665d50"
              },
              "diff": {
                "href": "https://api.bitbucket.org/2.0/repositories/mathildetech/taliyah/diff/1d5abfe37c3af6ad88862afb9ea32347c52c87c8..cda3a85b602db4e75227fd5e8cec3b4729665d50"
              }
            },
            "truncated": false,
            "commits": [
              {
                "hash": "1d5abfe37c3af6ad88862afb9ea32347c52c87c8",
                "links": {
                  "self": {
                    "href": "https://api.bitbucket.org/2.0/repositories/mathildetech/taliyah/commit/1d5abfe37c3af6ad88862afb9ea32347c52c87c8"
                  },
                  "comments": {
                    "href": "https://api.bitbucket.org/2.0/repositories/mathildetech/taliyah/commit/1d5abfe37c3af6ad88862afb9ea32347c52c87c8/comments"
                  },
                  "patch": {
                    "href": "https://api.bitbucket.org/2.0/repositories/mathildetech/taliyah/patch/1d5abfe37c3af6ad88862afb9ea32347c52c87c8"
                  },
                  "html": {
                    "href": "https://bitbucket.org/mathildetech/taliyah/commits/1d5abfe37c3af6ad88862afb9ea32347c52c87c8"
                  },
                  "diff": {
                    "href": "https://api.bitbucket.org/2.0/repositories/mathildetech/taliyah/diff/1d5abfe37c3af6ad88862afb9ea32347c52c87c8"
                  },
                  "approve": {
                    "href": "https://api.bitbucket.org/2.0/repositories/mathildetech/taliyah/commit/1d5abfe37c3af6ad88862afb9ea32347c52c87c8/approve"
                  },
                  "statuses": {
                    "href": "https://api.bitbucket.org/2.0/repositories/mathildetech/taliyah/commit/1d5abfe37c3af6ad88862afb9ea32347c52c87c8/statuses"
                  }
                },
                "author": {
                  "raw": "fanyang <fanyang@alauda.io>",
                  "type": "author",
                  "user": {
                    "username": "yangfan616",
                    "type": "user",
                    "display_name": "fanyang",
                    "uuid": "{8ea425e8-9325-4e26-b56e-6e9651453d1e}",
                    "links": {
                      "self": {
                        "href": "https://api.bitbucket.org/2.0/users/yangfan616"
                      },
                      "html": {
                        "href": "https://bitbucket.org/yangfan616/"
                      },
                      "avatar": {
                        "href": "https://bitbucket.org/account/yangfan616/avatar/32/"
                      }
                    }
                  }
                },
                "summary": {
                  "raw": "add\n",
                  "markup": "markdown",
                  "html": "<p>add</p>",
                  "type": "rendered"
                },
                "parents": [
                  {
                    "type": "commit",
                    "hash": "cda3a85b602db4e75227fd5e8cec3b4729665d50",
                    "links": {
                      "self": {
                        "href": "https://api.bitbucket.org/2.0/repositories/mathildetech/taliyah/commit/cda3a85b602db4e75227fd5e8cec3b4729665d50"
                      },
                      "html": {
                        "href": "https://bitbucket.org/mathildetech/taliyah/commits/cda3a85b602db4e75227fd5e8cec3b4729665d50"
                      }
                    }
                  }
                ],
                "date": "2018-04-03T08:35:54+00:00",
                "message": "add\n",
                "type": "commit"
              }
            ],
            "created": false,
            "closed": false,
            "new": {
              "type": "branch",
              "name": "feat/multiple_report",
              "links": {
                "commits": {
                  "href": "https://api.bitbucket.org/2.0/repositories/mathildetech/taliyah/commits/feat/multiple_report"
                },
                "self": {
                  "href": "https://api.bitbucket.org/2.0/repositories/mathildetech/taliyah/refs/branches/feat/multiple_report"
                },
                "html": {
                  "href": "https://bitbucket.org/mathildetech/taliyah/branch/feat/multiple_report"
                }
              },
              "target": {
                "hash": "1d5abfe37c3af6ad88862afb9ea32347c52c87c8",
                "links": {
                  "self": {
                    "href": "https://api.bitbucket.org/2.0/repositories/mathildetech/taliyah/commit/1d5abfe37c3af6ad88862afb9ea32347c52c87c8"
                  },
                  "html": {
                    "href": "https://bitbucket.org/mathildetech/taliyah/commits/1d5abfe37c3af6ad88862afb9ea32347c52c87c8"
                  }
                },
                "author": {
                  "raw": "fanyang <fanyang@alauda.io>",
                  "type": "author",
                  "user": {
                    "username": "yangfan616",
                    "type": "user",
                    "display_name": "fanyang",
                    "uuid": "{8ea425e8-9325-4e26-b56e-6e9651453d1e}",
                    "links": {
                      "self": {
                        "href": "https://api.bitbucket.org/2.0/users/yangfan616"
                      },
                      "html": {
                        "href": "https://bitbucket.org/yangfan616/"
                      },
                      "avatar": {
                        "href": "https://bitbucket.org/account/yangfan616/avatar/32/"
                      }
                    }
                  }
                },
                "summary": {
                  "raw": "add\n",
                  "markup": "markdown",
                  "html": "<p>add</p>",
                  "type": "rendered"
                },
                "parents": [
                  {
                    "type": "commit",
                    "hash": "cda3a85b602db4e75227fd5e8cec3b4729665d50",
                    "links": {
                      "self": {
                        "href": "https://api.bitbucket.org/2.0/repositories/mathildetech/taliyah/commit/cda3a85b602db4e75227fd5e8cec3b4729665d50"
                      },
                      "html": {
                        "href": "https://bitbucket.org/mathildetech/taliyah/commits/cda3a85b602db4e75227fd5e8cec3b4729665d50"
                      }
                    }
                  }
                ],
                "date": "2018-04-03T08:35:54+00:00",
                "message": "add\n",
                "type": "commit"
              }
            }
          }
        ]
      },
      "actor": {
        "username": "yangfan616",
        "type": "user",
        "display_name": "fanyang",
        "uuid": "{8ea425e8-9325-4e26-b56e-6e9651453d1e}",
        "links": {
          "self": {
            "href": "https://api.bitbucket.org/2.0/users/yangfan616"
          },
          "html": {
            "href": "https://bitbucket.org/yangfan616/"
          },
          "avatar": {
            "href": "https://bitbucket.org/account/yangfan616/avatar/32/"
          }
        }
      },
      "repository": {
        "scm": "git",
        "website": "",
        "name": "Taliyah",
        "links": {
          "self": {
            "href": "https://api.bitbucket.org/2.0/repositories/mathildetech/taliyah"
          },
          "html": {
            "href": "https://bitbucket.org/mathildetech/taliyah"
          },
          "avatar": {
            "href": "https://bitbucket.org/mathildetech/taliyah/avatar/32/"
          }
        },
        "project": {
          "links": {
            "self": {
              "href": "https://api.bitbucket.org/2.0/teams/mathildetech/projects/PROJ"
            },
            "html": {
              "href": "https://bitbucket.org/account/user/mathildetech/projects/PROJ"
            },
            "avatar": {
              "href": "https://bitbucket.org/account/user/mathildetech/projects/PROJ/avatar/32"
            }
          },
          "type": "project",
          "uuid": "{68a75cf2-80f9-427b-9a45-dcb142a4c1bb}",
          "key": "PROJ",
          "name": "Alauda"
        },
        "full_name": "mathildetech/taliyah",
        "owner": {
          "username": "mathildetech",
          "type": "team",
          "display_name": "Mathilde Technology Corp",
          "uuid": "{946ce0ec-3f05-47b4-a58c-0b098e85d7b9}",
          "links": {
            "self": {
              "href": "https://api.bitbucket.org/2.0/teams/mathildetech"
            },
            "html": {
              "href": "https://bitbucket.org/mathildetech/"
            },
            "avatar": {
              "href": "https://bitbucket.org/account/mathildetech/avatar/32/"
            }
          }
        },
        "type": "repository",
        "is_private": true,
        "uuid": "{32156925-6eb9-47b1-965b-cf4d619d17b5}"
      }

    // oschina
}