[
  // old version, without paginator, return a list
  {
    "config_id": "f1ecf21c-7ae6-4071-81c5-4c373974f747",
    "code_cache_enabled": false,
    "artifact_upload_enabled": true,
    "updated_at": "2017-01-05T13:05:58.672733Z",
    "ci_envs": {
      "language": "golang",
      "runtimes": [
        {
          "name": "1.6"
        }
      ]
    },
    "ci_steps": [
        "./configure",
        "make test",
        "cp . $ALAUDACI_DEST_DIR"
    ],
    "dockerfile_info": {
      "uuid": "11e11161-750a-4e3e-a774-fd272b2f794a",
      "name": "golang"
    },
    "ci_config_file_location": "/",
    "uuid": "f1ecf21c-7ae6-4071-81c5-4c373974f747",
    "endpoint_name": null,
    "auto_build_enabled": true,
    "notification": {
      "name": "test-sep-07-001",
      "uuid": "ab4a9d5a-695b-4687-b587-01e7af70f1c6"
    },
    "image_repo_id": "d1da0c46-5f59-41de-a6bf-159feb1c2239",
    "namespace": "claasv1",
    "created_by": "ysyou",
    "ci_enabled": true,
    "build_image_enabled": true,
    "privilege": "A",
    "code_repo": {
      "dockerfile_content": null,
      "dockerfile_location": "/",
      "code_id": "aa203874-efb5-42a1-b7e7-0b1d73b41aba",
      "web_hook_url": "http://api-int.alauda.cn/v1/private-builds/claasv1/auto/V49ZE1BR0ICW/",
      "code_repo_client": "SIMPLE_GIT",
      "code_repo_webhook_id": "710b77ef-e864-43d2-8682-02b74c3d8d9b",
      "code_repo_key_id": null,
      "code_repo_type": "BRANCH",
      "updated_at": "2017-01-05T13:05:58.683387Z",
      "code_repo_public_key": null,
      "code_repo_type_value": "master",
      "code_repo_webhook_code": "V49ZE1BR0ICW",
      "code_repo_username": "",
      "build_config": "f1ecf21c-7ae6-4071-81c5-4c373974f747",
      "build_context_path": "/",
      "created_at": "2017-01-05T13:05:58.683357Z",
      "code_repo_path": "http://aaa"
    },
    "build_filters":{
      "committers": ["wqlu", "sywang"]
    },
    "auto_tag_type": "CUSTOM_RULE",
    "customize_tag_rule": "{branch_name}-{author_email}-test",
    "image_repo": {
      "project": {
        "project_name": "liaojian-test",
        "project_id": "754574a7-728c-40b2-8ac7-e5698f4c4143"
      },
      "registry": {
        "display_name": "",
        "name": "private-registry-int-1"
      },
      "name": "aaaaaa"
    },
    "name": "test-bbb",
    "customize_tag": "latest",
    "created_at": "2017-01-05T13:05:58.672676Z",
    "endpoint_id": "17530a4b-43bb-465f-919f-0f1aa9c2edbb",
    "image_cache_enabled": true
  },
  {
    "config_id": "b8be5afc-8ea0-4e9b-8fdb-ebe4c46af875",
    "code_cache_enabled": false,
    "updated_at": "2017-01-05T13:04:56.498418Z",
    "ci_envs": {
      "language": "golang",
      "runtimes": [
        {
          "name": "1.6"
        }
      ]
    },
    "dockerfile_info": {
      "uuid": "11e11161-750a-4e3e-a774-fd272b2f794b",
      "name": "golang"
    },
    "ci_config_file_location": "/",
    "uuid": "b8be5afc-8ea0-4e9b-8fdb-ebe4c46af875",
    "endpoint_name": null,
    "auto_build_enabled": true,
    "notification": {
      "name": "test-sep-07-001",
      "uuid": "ab4a9d5a-695b-4687-b587-01e7af70f1c6"
    },
    "image_repo_id": "d1da0c46-5f59-41de-a6bf-159feb1c2239",
    "namespace": "claasv1",
    "created_by": "claasv1",
    "ci_enabled": true,
    "build_image_enabled": true,
    "privilege": "A",
    "code_repo": {
      "dockerfile_content": null,
      "dockerfile_location": "/",
      "code_id": "a353ad40-ecf1-48ab-8f67-773dbe0f960d",
      "web_hook_url": "http://api-int.alauda.cn/v1/private-builds/claasv1/auto/ZLCGTX5P4EK3/",
      "code_repo_client": "SIMPLE_GIT",
      "code_repo_webhook_id": "7a11d5c4-ca5d-49fe-801d-826bcd65e84f",
      "code_repo_key_id": null,
      "code_repo_type": "BRANCH",
      "updated_at": "2017-01-05T13:04:56.557442Z",
      "code_repo_public_key": null,
      "code_repo_type_value": "master",
      "code_repo_webhook_code": "ZLCGTX5P4EK3",
      "code_repo_username": "",
      "build_config": "b8be5afc-8ea0-4e9b-8fdb-ebe4c46af875",
      "build_context_path": "/",
      "created_at": "2017-01-05T13:04:56.557406Z",
      "code_repo_path": "http://aaa"
    },
    "auto_tag_type": "COMMIT",
    "image_repo": {
      "project": {
        "project_name": "liaojian-test",
        "project_id": "754574a7-728c-40b2-8ac7-e5698f4c4143"
      },
      "registry": {
        "display_name": "",
        "name": "private-registry-int-1"
      },
      "name": "aaaaaa"
    },
    "name": "test-aaa",
    "customize_tag": "latest",
    "created_at": "2017-01-05T13:04:56.498353Z",
    "endpoint_id": "17530a4b-43bb-465f-919f-0f1aa9c2edbb",
    "image_cache_enabled": true,
    "schedule_rule": "* * * * *",
    "cpu": 0.5,
    "memory": 512
  },
  {
    "notification_id": null,
    "config_id": "c80ce986-fe1d-47f4-9d3b-006a8d9c7c6d",
    "code_cache_enabled": false,
    "updated_at": "2016-09-18T04:45:22.840080Z",
    "ci_envs": {},
    "ci_config_file_location": "",
    "uuid": "c80ce986-fe1d-47f4-9d3b-006a8d9c7c6d",
    "endpoint_name": null,
    "auto_build_enabled": true,
    "image_repo_id": "2d7b7d70-d2b2-46b0-807c-74eb6a937748",
    "namespace": "claasv1",
    "created_by": "claasv1",
    "ci_enabled": false,
    "build_image_enabled": true,
    "privilege": "A",
    "code_repo": {
      "dockerfile_content": null,
      "dockerfile_location": "/",
      "code_id": "889c0609-e94a-43de-9d0c-45112b9e5073",
      "web_hook_url": "http://api-int.alauda.cn/v1/private-builds/claasv1/auto/WOSEJY8120G3/",
      "code_repo_client": "GITHUB",
      "code_repo_webhook_id": "9954961",
      "code_repo_key_id": 19103472,
      "code_repo_type": "BRANCH",
      "updated_at": "2016-09-18T04:45:32.192915Z",
      "code_repo_public_key": "ssh-rsa AAAAB3NzaC1yc2EAAAADAQABAAAAgQDf3jE+f3EzYbS5v/3zPjytkJcnS545XvQLpiM+yLU1waNWI9LzpWQGqyfrIUL0o+j4fvYJCANGtppRa7WP9hhv2kdrC3icWj4ZbQ9upIloFeQ59dFxFFAFHXV6HaRURDriwvw6trwkvMkEP0g5lpSWpzUaDJpYcp0uAjTvsfaZww==",
      "code_repo_type_value": "master",
      "code_repo_webhook_code": "WOSEJY8120G3",
      "code_repo_username": "",
      "build_config": "c80ce986-fe1d-47f4-9d3b-006a8d9c7c6d",
      "build_context_path": "/",
      "created_at": "2016-09-18T04:45:32.192862Z",
      "code_repo_path": "alauda/tasks-test"
    },
    "build_filters":{
      "committers": ["wqlu", "sywang"]
    },
    "auto_tag_type": "COMMIT",
    "image_repo": {
      "project": null,
      "registry": {
        "display_name": "",
        "name": "private-registry-int-1"
      },
      "name": "integration"
    },
    "name": "task-integration",
    "customize_tag": "latest",
    "created_at": "2016-09-18T04:45:22.840038Z",
    "endpoint_id": "",
    "image_cache_enabled": true,
    "schedule_rule": "* * * * *",
    "cpu": 0.5,
    "memory": 512
  }
]
