[{
  "config_id": "9f3736a6-e15f-4937-b97a-0e04434bdf9e",
  "cpu": 0.5,
  "memory": 512,
  "dest": [
    {
      "is_http": true,
      "username": null,
      "endpoint": "index-int.alauda.cn",
      "internal_id": "210fd52c-3cf9-4588-bbae-157cfd9b0a33",
      "dest_id": "6eb571e3-3fa2-46d6-b03a-bbf78edb451b",
      "internal_id":"210fd52c-3cf9-4588-bbae-157cfd9b0a33",
      "dest_type":"INTERNAL_REGISTRY",
      "password": null
    },
    {
      "is_http": true,
      "username": "claasv11",
      "endpoint": "testintcluster-claasv1.intindex.alauda.cn:5000",
      "internal_id": null,
      "dest_id": "205eeb48-ae69-4cb2-8ec7-4bad145f5589",
      "dest_type": "EXTERNAL_REGISTRY",
      "password": "07Apples"
    }
  ],
  "created_at": "2017-06-07T07:56:39.722460Z",
  "namespace": "claasv1",
  "updated_at": "2017-06-07T07:56:39.722527Z",
  "created_by": "claasv1",
  "source": {
    "info": {
      "repository_name": "test-dockerfile",
      "project_name": null,
      "registry_name": "alauda_public_registry"
    }
  },
  "config_name": "sycn-to-ali29"
},
{
  "config_id": "8f3736a6-e15f-4937-b97a-0e04434bdf9e",
  "cpu": 0.5,
  "memory": 512,
  "dest": [
    {
      "is_http": true,
      "username": null,
      "endpoint": "index-int.alauda.cn",
      "internal_id": "210fd52c-3cf9-4588-bbae-157cfd9b0a33",
      "dest_id": "6eb571e3-3fa2-46d6-b03a-bbf78edb451b",
      "internal_id":"210fd52c-3cf9-4588-bbae-157cfd9b0a33",
      "dest_type":"INTERNAL_REGISTRY",
      "password": null
    },
    {
      "is_http": true,
      "username": "claasv11",
      "endpoint": "testintcluster-claasv1.intindex.alauda.cn:5000",
      "internal_id": null,
      "dest_id": "205eeb48-ae69-4cb2-8ec7-4bad145f5589",
      "dest_type": "EXTERNAL_REGISTRY",
      "password": "07Apples"
    }
  ],
  "created_at": "2017-06-07T07:56:39.722460Z",
  "namespace": "claasv1",
  "updated_at": "2017-06-07T07:56:39.722527Z",
  "created_by": "claasv1",
  "source": {
    "info": {
      "repository_name": "test-dockerfile",
      "project_name": null,
      "registry_name": "alauda_public_registry"
    }
  },
  "config_name": "sycn-to-ali29"
}
]
