{
  "container": "5c5408ef2ada5f1d68e2fc8410abba7f8e74e802ace19b463ae36beb50f1682a",
  "parent": "4322a8279ff2d6361f77a1accc25fd484d3241fdc0f3d3b83529017c0cfe5714",
  "created": "2017-05-26T08:14:12.900813305Z",
  "os": "linux",
  "container_config": {
    "Tty": false,
    "Cmd": [
      "/bin/sh",
      "-c",
      "#(nop) ",
      "EXPOSE 80/tcp"
    ],
    "Volumes": null,
    "Domainname": "",
    "WorkingDir": "",
    "Image": "sha256:6f4ea9f58e4e521f84992aab805661a1431cdbd625ddc7405161d31c76555190",
    "Hostname": "98edfeb52d0e",
    "StdinOnce": false,
    "Labels": {},
    "AttachStdin": false,
    "User": "",
    "Env": [
      "PATH=/usr/local/sbin:/usr/local/bin:/usr/sbin:/usr/bin:/sbin:/bin"
    ],
    "ExposedPorts": {
      "80/tcp": {}
    },
    "OnBuild": [],
    "AttachStderr": false,
    "Entrypoint": null,
    "AttachStdout": false,
    "OpenStdin": false
  },
  "architecture": "amd64",
  "docker_version": "1.12.3",
  "config": {
    "Tty": false,
    "Cmd": null,
    "Volumes": null,
    "Domainname": "",
    "WorkingDir": "",
    "Image": "sha256:6f4ea9f58e4e521f84992aab805661a1431cdbd625ddc7405161d31c76555190",
    "Hostname": "98edfeb52d0e",
    "StdinOnce": false,
    "Labels": {},
    "AttachStdin": false,
    "User": "",
    "Env": [
      "PATH=/usr/local/sbin:/usr/local/bin:/usr/sbin:/usr/bin:/sbin:/bin"
    ],
    "ExposedPorts": {
      "80/tcp": {}
    },
    "OnBuild": [],
    "AttachStderr": false,
    "Entrypoint": null,
    "AttachStdout": false,
    "OpenStdin": false
  },
  "id": "1ff1662e8cb9e9ea0ad18255064dc7cb70359ffb8a43e05ccfe02a2c669ce8ad",
  "throwaway": true
}
