{
  "count": 1,
  "next": false,
  "previous": false,
  "page_size": 20,
  "num_pages": 1,
  "results": [
       {
         "resource_actions": [
           "k8s_servicebinding:create",
           "k8s_servicebinding:delete",
           "k8s_servicebinding:update",
           "k8s_servicebinding:view"
        ],
        "kubernetes": {
           "metadata": {
             "annotations":{
                 "serviceinstance.alauda.io/name": "instancename",
                 "clusterserviceclass.alauda.io/name": "classa",
                 "clusterserviceplan.alauda.io/name": "plana"
             },
             "labels": {
                "service.alauda.io/uuid": "services_uuid"
             },
             "creationTimestamp": "2017-11-01 14:26:29",
             "finalizers": [
               "kubernetes-incubator/service-catalog"
             ],
             "generation": 1,
             "name": "ups-binding",
             "namespace": "test-ns",
             "resourceVersion": "16",
             "selfLink": "/apis/servicecatalog.k8s.io/v1beta1/namespaces/test-ns/servicebindings/ups-binding",
             "uid": "a6823f15-bf10-11e7-9e29-0242ac110004"
           },
           "spec": {
             "externalID": "a8bb795a-711d-4854-adbb-5654428274f9",
             "instanceRef": {
               "name": "ups-instance"
             },
             "parameters": {
               "key1": "value1",
               "key2": "value2"
             },
             "secretName": "ups-binding"
           },
          "status": {
              "asyncOpInProgress": false,
              "conditions": [
                  {
                      "lastTransitionTime": "2018-06-04T10:51:22Z",
                      "message": "Injected bind result",
                      "reason": "InjectedBindResult",
                      "status": "True",
                      "type": "Ready"
                  }
              ],
              "externalProperties": {},
              "orphanMitigationInProgress": false,
              "reconciledGeneration": 1,
              "unbindStatus": "Required"
            }
         },
      "credential": {
         "name": "xxxx",
         "password": "xcvxv"
       },
       "service": {
         "name": "xxx",
         "uuid": "uuid",
         "status": "status",
         "namespace": "xx"
       },
    }]
}
